{
    "names": [
        "Abderus",
        "Achilles",
        "Aeneas",
        "Ajax the Great",
        "Ajax the Lesser",
        "Amphitryon",
        "Antilochus",
        "Bellerophon",
        "Bouzyges",
        "Castor",
        "Chrysippus",
        "Daedalus",
        "Diomedes",
        "Eleusis",
        "Eunostus",
        "Ganymede",
        "Hector",
        "Icarus",
        "Iolaus",
        "Jason",
        "Meleager",
        "Odysseus",
        "Orpheus",
        "Pandion",
        "Perseus",
        "Theseus"
    ]
}
